<?xml version="1.0" encoding="utf-8"?>
<!-- Generator: Adobe Illustrator 18.0.0, SVG Export Plug-In . SVG Version: 6.00 Build 0)  -->
<!DOCTYPE svg PUBLIC "-//W3C//DTD SVG 1.1//EN" "http://www.w3.org/Graphics/SVG/1.1/DTD/svg11.dtd">
<svg version="1.1" id="Слой_1" xmlns="http://www.w3.org/2000/svg" xmlns:xlink="http://www.w3.org/1999/xlink" x="0px" y="0px"
	 viewBox="0 315.4 595.3 211.3" enable-background="new 0 315.4 595.3 211.3" xml:space="preserve">
<g>
	<path fill="#FFFFFF" d="M586.4,526.5H9c-4.9,0-8.9-4-8.9-8.9V324.7c0-4.9,4-8.9,8.9-8.9h577.3c3.2,0,6.2,1.7,7.7,4.5
		c1.6,2.8,1.5,6.2-0.1,9L568.2,373l25.8,43.7c1.7,2.8,1.7,6.3,0,9.1l-25.8,43.7l25.8,43.7c1.6,2.7,1.7,6.2,0.1,9
		C592.5,524.8,589.6,526.5,586.4,526.5z M18,508.6h552.7l-20.5-34.8c-1.7-2.8-1.7-6.3,0-9.1l25.8-43.7l-25.8-43.7
		c-1.7-2.8-1.7-6.3,0-9.1l20.5-34.8H18V508.6z"/>
</g>
<g>
	<path fill="#FFFFFF" d="M112.1,460.2c-1,1.6-2.3,3-3.9,4.2c-1.6,1.2-3.7,1.8-6.3,1.8c-3.5,0-6.1-1-7.9-2.8c-1.7-1.9-2.6-4-2.6-6.5
		c0-1.4,0.4-2.8,1-4.3c0.7-1.5,1.5-3,2.6-4.5l19.3-28.9l-19.6-28.5c-0.7-1-1.2-2.1-1.4-3.2c-0.3-1.1-0.4-2.1-0.4-3.2
		c0-2.6,1-5,3.1-7.1c2-2.1,4.7-3.2,8-3.2c2.3,0,4.2,0.6,5.8,1.8c1.6,1.2,3,2.9,4.3,5.1l13.8,22.4l12.6-21.7c1.3-2,2.6-3.8,3.9-5.3
		c1.4-1.5,3.5-2.2,6.3-2.2c3.3,0,5.9,1,7.7,2.8c1.9,1.9,2.8,4.1,2.8,6.7c0,2.4-0.7,4.7-2.2,7l-18.1,27.7l20.1,31.5
		c1.4,2,2,4.3,2,6.7c0,2.4-1,4.6-3.1,6.7c-2,2-4.7,3.1-8,3.1c-2.9,0-5-0.8-6.5-2.3s-2.8-3.2-3.9-4.9l-14.4-22.7L112.1,460.2z"/>
	<path fill="#FFFFFF" d="M176.3,420.4c0-7.3,1-13.9,3-19.7s4.8-10.8,8.5-14.9c3.6-4.1,8-7.3,13-9.5c5-2.2,10.6-3.3,16.7-3.3
		s11.7,1,16.7,3c5,2,9.3,4.9,12.9,8.9c3.6,3.9,6.4,8.9,8.3,14.8c1.9,5.9,2.9,12.7,2.9,20.5c0,7.4-1,14-3,19.9s-4.8,11-8.3,15
		c-3.6,4.1-7.9,7.3-12.9,9.5s-10.6,3.3-16.7,3.3c-6.4,0-12.1-1.1-17.1-3.3c-5-2.2-9.3-5.4-12.9-9.5c-3.6-4.1-6.3-9-8.2-14.9
		C177.2,434.3,176.3,427.7,176.3,420.4z M217.2,449.3c6.1,0,11-2.4,14.4-7.1c3.5-4.8,5.2-11.9,5.2-21.3c0-9.6-1.7-16.8-5.1-21.6
		c-3.4-4.7-8.3-7.1-14.5-7.1c-5.9,0-10.6,2.4-14,7.1c-3.4,4.7-5.1,11.7-5.1,21.1c0,9.6,1.7,16.9,5.1,21.8
		C206.6,446.8,211.3,449.3,217.2,449.3z"/>
	<path fill="#FFFFFF" d="M329.4,454.6c-1.1,1.6-2.4,3.2-3.9,4.6c-1.4,1.5-3.2,2.8-5.2,4c-2,1.2-4.4,2.1-7,2.9
		c-2.6,0.7-5.7,1.1-9.2,1.1c-8.2,0-14.6-2-19.3-6.1c-4.7-4.1-7.1-10.2-7.1-18.3c0-4.9,0.8-9.1,2.3-12.6s3.6-6.5,6.3-8.9
		c2.6-2.4,5.6-4.3,9-5.7c3.3-1.4,6.8-2.5,10.5-3.2c4-0.8,7.7-1.4,11.3-1.9c3.5-0.5,7.6-0.8,12.3-1.2v-4.8c0-1.7-0.2-3.4-0.5-5.1
		s-1-3.2-2-4.5c-1-1.4-2.4-2.4-4.3-3.2c-1.8-0.8-4.2-1.2-7-1.2c-3,0-5.7,0.6-8.3,1.7c-2.6,1.1-5.5,3-8.8,5.5
		c-1.3,0.9-2.5,1.8-3.7,2.6s-2.7,1.2-4.7,1.2c-1.1,0-2.3-0.2-3.3-0.8c-1.1-0.5-2-1.2-2.9-2c-0.8-0.8-1.5-1.8-2.1-3
		c-0.6-1.1-0.8-2.3-0.8-3.4c0-2.1,0.5-3.9,1.4-5.4c1-1.4,2.7-3.1,5.4-5.1c4-3,8.5-5.2,13.6-6.7c5.1-1.5,10-2.2,14.8-2.2
		c12,0,20.6,2.6,26,7.7c5.4,5.2,8,13.1,8,23.8v52.2c0,3.3-0.8,5.7-2.6,7.1c-1.7,1.5-4.4,2.2-8,2.2c-3.1,0-5.5-0.7-7.3-2.1
		c-1.8-1.4-2.6-3.9-2.6-7.3v-2.2H329.4z M329.2,424.2c-4,0.5-7.7,1-11.3,1.5s-6.1,1.1-7.9,1.5c-4.5,1.1-7.7,2.9-9.3,5.3
		c-1.7,2.4-2.5,4.9-2.5,7.7c0,2.6,0.8,4.9,2.3,6.8s4.3,2.9,8.3,2.9c3.1,0,5.8-0.5,8.3-1.5c2.5-1,4.6-2.4,6.4-4.1
		c1.8-1.7,3.2-3.7,4.1-6c1-2.3,1.4-4.7,1.4-7.3V424.2z"/>
	<path fill="#FFFFFF" d="M446.8,415.3l-15.5,43.2c-1.6,4.5-4.7,6.7-9.4,6.7c-3.1,0-5.4-0.7-6.8-2c-1.5-1.3-2.6-2.9-3.2-4.9l-14.7-42
		v41.3c0,2.9-0.7,5-2,6.4c-1.3,1.4-3.8,2.1-7.4,2.1c-3.5,0-6-0.7-7.4-1.9s-2.1-3.5-2.1-6.8v-73.2c0-3.9,0.9-6.5,2.7-8
		c1.8-1.5,4.8-2.2,9-2.2c3.8,0,6.5,0.7,8.2,2.1c1.7,1.4,3,3.3,3.9,5.7l19.9,58.5l19.6-58c0.9-2.9,2.2-4.9,3.9-6.3
		c1.7-1.4,4.6-2,8.7-2c4.2,0,7.1,0.7,8.9,2.2s2.6,4.1,2.6,7.9v73.6c0,2.9-0.7,5-2.2,6.4c-1.5,1.4-3.9,2.1-7.3,2.1
		c-3.5,0-6-0.7-7.3-2s-2-3.6-2-6.7L446.8,415.3L446.8,415.3z"/>
</g>
</svg>
