[{
  "relation": ["delegate_permission/common.handle_all_urls"],
  "target" : { "namespace": "android_app", "package_name": "kupi95.ru.kupi95",
               "sha256_cert_fingerprints": ["E1:0F:31:FD:5A:68:5B:1F:B1:36:B5:36:46:6D:95:05:8A:AD:AA:A7:0C:B9:6B:F1:7D:81:28:B7:14:29:85:B7"] }
}]